%YAML 1.1
%TAG !u! tag:unity3d.com,2011:
--- !u!1 &6929667892305660690
GameObject:
  m_ObjectHideFlags: 0
  m_CorrespondingSourceObject: {fileID: 0}
  m_PrefabInstance: {fileID: 0}
  m_PrefabAsset: {fileID: 0}
  serializedVersion: 6
  m_Component:
  - component: {fileID: 5511775120703943846}
  - component: {fileID: 4501108726370184654}
  m_Layer: 0
  m_Name: LaserBoltManager
  m_TagString: Untagged
  m_Icon: {fileID: 0}
  m_NavMeshLayer: 0
  m_StaticEditorFlags: 0
  m_IsActive: 1
--- !u!4 &5511775120703943846
Transform:
  m_ObjectHideFlags: 0
  m_CorrespondingSourceObject: {fileID: 0}
  m_PrefabInstance: {fileID: 0}
  m_PrefabAsset: {fileID: 0}
  m_GameObject: {fileID: 6929667892305660690}
  m_LocalRotation: {x: 0, y: 0, z: 0, w: 1}
  m_LocalPosition: {x: 0, y: 0, z: 0}
  m_LocalScale: {x: 1, y: 1, z: 1}
  m_Children: []
  m_Father: {fileID: 0}
  m_RootOrder: 0
  m_LocalEulerAnglesHint: {x: 0, y: 0, z: 0}
--- !u!114 &4501108726370184654
MonoBehaviour:
  m_ObjectHideFlags: 0
  m_CorrespondingSourceObject: {fileID: 0}
  m_PrefabInstance: {fileID: 0}
  m_PrefabAsset: {fileID: 0}
  m_GameObject: {fileID: 6929667892305660690}
  m_Enabled: 1
  m_EditorHideFlags: 0
  m_Script: {fileID: 11500000, guid: ad407c9f2b65eb34993a376eb1f027ea, type: 3}
  m_Name: 
  m_EditorClassIdentifier: 
  laserBoltPrefab: {fileID: 3327127944044707112, guid: 9324944996260fe4193aa00237fc8148,
    type: 3}
  shootAudio: {fileID: 8300000, guid: 196f36d30c502164e9634dd877aa6ddc, type: 3}
  spawnOffSetFromBuildingY: 0.8
  totalBulletsToFire: 12
  fireRate: 6
  bulletSpeed: 14
  bulletChampionDamage: 30
  bulletBuildingDamage: 5
  bulletAffectedLayers: 00010000001000000004000000400000
